# 3ds Max Wavefront OBJ Exporter v0.97b - (c)2007 guruware
# File Created: 14.04.2018 23:01:32

newmtl chrome
	Ns 39.0000
	Ni 1.5000
	d 1.0000
	Tr 0.0000
	Tf 1.0000 1.0000 1.0000 
	illum 2
	Ka 0.0980 0.0980 0.0980
	Kd 0.0980 0.0980 0.0980
	Ks 0.8460 0.8460 0.8460
	Ke 0.0000 0.0000 0.0000
	map_refl D:\Development\Models\Textures\CHRMWARP.JPG

newmtl chrome2
	Ns 39.0000
	Ni 1.5000
	d 1.0000
	Tr 0.0000
	Tf 1.0000 1.0000 1.0000 
	illum 2
	Ka 0.0118 0.0118 0.0118
	Kd 0.0118 0.0118 0.0118
	Ks 0.7200 0.7200 0.7200
	Ke 0.0000 0.0000 0.0000
	map_refl D:\Development\Models\Textures\CHRMWARP.JPG

newmtl hez
	Ns 41.0000
	Ni 1.5000
	d 1.0000
	Tr 0.0000
	Tf 1.0000 1.0000 1.0000 
	illum 2
	Ka 0.1137 0.0196 0.0000
	Kd 0.1137 0.0196 0.0000
	Ks 0.7020 0.7020 0.7020
	Ke 0.0000 0.0000 0.0000
	map_Ka Map__14_Wood.tga
	map_Kd Map__14_Wood.tga

newmtl 04___Default
	Ns 10.0000
	Ni 1.5000
	d 1.0000
	Tr 0.0000
	Tf 1.0000 1.0000 1.0000 
	illum 2
	Ka 0.5882 0.5882 0.5882
	Kd 0.5882 0.5882 0.5882
	Ks 0.0000 0.0000 0.0000
	Ke 0.0000 0.0000 0.0000
	map_Ka D:\Development\Models\Textures\ets lamakkkkkil shelanoo.jpg
	map_Kd D:\Development\Models\Textures\ets lamakkkkkil shelanoo.jpg

newmtl 01___Default
	Ns 10.0000
	Ni 1.5000
	d 1.0000
	Tr 0.0000
	Tf 1.0000 1.0000 1.0000 
	illum 2
	Ka 0.5882 0.5882 0.5882
	Kd 0.5882 0.5882 0.5882
	Ks 0.0000 0.0000 0.0000
	Ke 0.0000 0.0000 0.0000
	map_Ka D:\Development\Models\Textures\feather_texture1444.jpg
	map_Kd D:\Development\Models\Textures\feather_texture1444.jpg

newmtl wire_153228214
	Ns 32
	d 1
	Tr 0
	Tf 1 1 1
	illum 2
	Ka 0.6000 0.8941 0.8392
	Kd 0.6000 0.8941 0.8392
	Ks 0.3500 0.3500 0.3500

newmtl wire_169255255
	Ns 32
	d 1
	Tr 0
	Tf 1 1 1
	illum 2
	Ka 0.6627 1.0000 1.0000
	Kd 0.6627 1.0000 1.0000
	Ks 0.3500 0.3500 0.3500

newmtl Metal_Dark_Gold
	Ns 61.0000
	Ni 1.5000
	d 1.0000
	Tr 0.0000
	Tf 1.0000 1.0000 1.0000 
	illum 2
	Ka 0.0000 0.0000 0.0000
	Kd 0.3490 0.0824 0.0000
	Ks 0.6754 0.6041 0.5143
	Ke 0.0000 0.0000 0.0000
	map_refl Map__13_Swirl.tga

newmtl 23
	Ns 10.0000
	Ni 1.5000
	d 1.0000
	Tr 0.0000
	Tf 1.0000 1.0000 1.0000 
	illum 2
	Ka 0.5882 0.5882 0.5882
	Kd 0.5882 0.5882 0.5882
	Ks 0.0000 0.0000 0.0000
	Ke 0.0000 0.0000 0.0000
	map_Ka D:\Development\Models\Textures\barak lasharvitim hagamad hamevohelet.jpg
	map_Kd D:\Development\Models\Textures\barak lasharvitim hagamad hamevohelet.jpg

newmtl 10___Default
	Ns 10.0000
	Ni 1.5000
	d 1.0000
	Tr 0.0000
	Tf 1.0000 1.0000 1.0000 
	illum 2
	Ka 0.5882 0.5882 0.5882
	Kd 0.5882 0.5882 0.5882
	Ks 0.0000 0.0000 0.0000
	Ke 0.0000 0.0000 0.0000
	map_Ka D:\Development\Models\Textures\gamad shel yadit.jpg
	map_Kd D:\Development\Models\Textures\gamad shel yadit.jpg

newmtl 21___Default
	Ns 10.0000
	Ni 1.5000
	d 1.0000
	Tr 0.0000
	Tf 1.0000 1.0000 1.0000 
	illum 2
	Ka 0.5882 0.5882 0.5882
	Kd 0.5882 0.5882 0.5882
	Ks 0.0000 0.0000 0.0000
	Ke 0.0000 0.0000 0.0000
	map_Ka D:\Development\Models\Textures\ein li coah lihtov shem aroch latmoona aval yesh basis ya know.jpg
	map_Kd D:\Development\Models\Textures\ein li coah lihtov shem aroch latmoona aval yesh basis ya know.jpg

newmtl 15___Default
	Ns 10.0000
	Ni 1.5000
	d 1.0000
	Tr 0.0000
	Tf 1.0000 1.0000 1.0000 
	illum 2
	Ka 0.0000 0.0000 0.0000
	Kd 0.0000 0.0000 0.0000
	Ks 0.2070 0.2070 0.2070
	Ke 0.0000 0.0000 0.0000
	map_Ka D:\Development\Models\Textures\textura shel laba im hagamadim.png
	map_Kd D:\Development\Models\Textures\textura shel laba im hagamadim.png

newmtl 19___Default
	Ns 10.0000
	Ni 1.5000
	d 1.0000
	Tr 0.0000
	Tf 1.0000 1.0000 1.0000 
	illum 2
	Ka 0.5882 0.5882 0.5882
	Kd 0.5882 0.5882 0.5882
	Ks 0.0000 0.0000 0.0000
	Ke 0.0000 0.0000 0.0000
	map_Ka D:\Development\Models\Textures\esh sheni.jpg
	map_Kd D:\Development\Models\Textures\esh sheni.jpg
